@startuml
actor CALLER
actor lcd
autonumber
group initialization
	CALLER -> lcd: Create object (set parameters from configuration)
	CALLER <-- lcd: Successful creation [Boolean]
end
group operation
	CALLER -> lcd: Mode to change backlight
	CALLER -> lcd: 64x128 array showing which pixels need to be displayed [Boolean Array]
	CALLER -> lcd: If new array should be have AND or OR operation with array currently displayed [Boolean]
	CALLER <-- lcd: Succesful display [Boolean]
end
@enduml